\relax 
\providecommand\hyper@newdestlabel[2]{}
\providecommand\HyperFirstAtBeginDocument{\AtBeginDocument}
\HyperFirstAtBeginDocument{\ifx\hyper@anchor\@undefined
\global\let\oldcontentsline\contentsline
\gdef\contentsline#1#2#3#4{\oldcontentsline{#1}{#2}{#3}}
\global\let\oldnewlabel\newlabel
\gdef\newlabel#1#2{\newlabelxx{#1}#2}
\gdef\newlabelxx#1#2#3#4#5#6{\oldnewlabel{#1}{{#2}{#3}}}
\AtEndDocument{\ifx\hyper@anchor\@undefined
\let\contentsline\oldcontentsline
\let\newlabel\oldnewlabel
\fi}
\fi}
\global\let\hyper@last\relax 
\gdef\HyperFirstAtBeginDocument#1{#1}
\providecommand\HyField@AuxAddToFields[1]{}
\providecommand\HyField@AuxAddToCoFields[2]{}
\@writefile{toc}{\contentsline {section}{\numberline {1}Introduction}{1}{section.1}\protected@file@percent }
\newlabel{eq:gKPZ}{{1.1}{1}{Introduction}{equation.1.1}{}}
\newlabel{eq:gKPZ@cref}{{[equation][1][1]1.1}{[1][1][]1}}
\citation{MH21}
\citation{reg}
\citation{MH21}
\newlabel{th:cyc}{{1.1}{2}{Introduction}{lemma.1.1}{}}
\newlabel{th:cyc@cref}{{[lemma][1][1]1.1}{[1][2][]2}}
\@writefile{toc}{\contentsline {section}{\numberline {2}Joint Cumulants}{2}{section.2}\protected@file@percent }
\newlabel{def:cum}{{2.1}{2}{Joint Cumulants}{lemma.2.1}{}}
\newlabel{def:cum@cref}{{[lemma][1][2]2.1}{[1][2][]2}}
\citation{HQ15}
\citation{HQ15}
\citation{HQ15}
\citation{HQ15}
\newlabel{lem:cyc}{{2.3}{3}{Joint Cumulants}{lemma.2.3}{}}
\newlabel{lem:cyc@cref}{{[lemma][3][2]2.3}{[1][2][]3}}
\@writefile{toc}{\contentsline {section}{\numberline {3}Labelled Graphs}{3}{section.3}\protected@file@percent }
\@writefile{toc}{\contentsline {subsection}{\numberline {3.1}Directed MultiGraph and Contracted Graphs}{3}{subsection.3.1}\protected@file@percent }
\citation{HQ15}
\newlabel{ass:grph}{{1}{4}{Directed MultiGraph and Contracted Graphs}{assumption.1}{}}
\newlabel{ass:grph@cref}{{[assumption][1][]1}{[1][4][]4}}
\newlabel{eq:ass2e1}{{3.3}{4}{Directed MultiGraph and Contracted Graphs}{equation.3.3}{}}
\newlabel{eq:ass2e1@cref}{{[equation][3][3]3.3}{[1][4][]4}}
\newlabel{eq:ass2e2}{{3.4}{4}{Directed MultiGraph and Contracted Graphs}{equation.3.4}{}}
\newlabel{eq:ass2e2@cref}{{[equation][4][3]3.4}{[1][4][]4}}
\newlabel{ass:Kernel}{{2}{4}{Directed MultiGraph and Contracted Graphs}{assumption.2}{}}
\newlabel{ass:Kernel@cref}{{[assumption][2][]2}{[1][4][]4}}
\newlabel{e:boundKn}{{3.5}{4}{Directed MultiGraph and Contracted Graphs}{equation.3.5}{}}
\newlabel{e:boundKn@cref}{{[equation][5][3]3.5}{[1][4][]4}}
\newlabel{eq:genconv}{{3.6}{4}{Directed MultiGraph and Contracted Graphs}{equation.3.6}{}}
\newlabel{eq:genconv@cref}{{[equation][6][3]3.6}{[1][4][]4}}
\citation{HQ15}
\newlabel{th:HQbnd}{{3.1}{5}{Directed MultiGraph and Contracted Graphs}{lemma.3.1}{}}
\newlabel{th:HQbnd@cref}{{[lemma][1][3]3.1}{[1][5][]5}}
\newlabel{eq:genconvBound}{{3.7}{5}{Directed MultiGraph and Contracted Graphs}{equation.3.7}{}}
\newlabel{eq:genconvBound@cref}{{[equation][7][3]3.7}{[1][5][]5}}
\newlabel{def:kayhat}{{3.9}{5}{Directed MultiGraph and Contracted Graphs}{equation.3.9}{}}
\newlabel{def:kayhat@cref}{{[equation][9][3]3.9}{[1][5][]5}}
\citation{HQ15}
\citation{HQ15}
\citation{HQ15}
\citation{MH21}
\newlabel{eq:bigsum}{{3.11}{6}{Directed MultiGraph and Contracted Graphs}{equation.3.11}{}}
\newlabel{eq:bigsum@cref}{{[equation][11][3]3.11}{[1][6][]6}}
\newlabel{lem:wantedBound2}{{3.2}{6}{Directed MultiGraph and Contracted Graphs}{lemma.3.2}{}}
\newlabel{lem:wantedBound2@cref}{{[lemma][2][3]3.2}{[1][6][]6}}
\newlabel{e:wantedBound2}{{3.12}{6}{Directed MultiGraph and Contracted Graphs}{equation.3.12}{}}
\newlabel{e:wantedBound2@cref}{{[equation][12][3]3.12}{[1][6][]6}}
\newlabel{e:wantedBound21}{{3.13}{6}{Directed MultiGraph and Contracted Graphs}{equation.3.13}{}}
\newlabel{e:wantedBound21@cref}{{[equation][13][3]3.13}{[1][6][]6}}
\@writefile{toc}{\contentsline {subsection}{\numberline {3.2}Partition of Integral Domain}{6}{subsection.3.2}\protected@file@percent }
\citation{HQ15}
\newlabel{eq:labelbnd}{{3.14}{7}{Partition of Integral Domain}{equation.3.14}{}}
\newlabel{eq:labelbnd@cref}{{[equation][14][3]3.14}{[1][6][]7}}
\newlabel{eq:secondmainstep}{{3.16}{7}{Partition of Integral Domain}{equation.3.16}{}}
\newlabel{eq:secondmainstep@cref}{{[equation][16][3]3.16}{[1][7][]7}}
\citation{reg}
\newlabel{eq:etaa}{{3.17}{9}{Partition of Integral Domain}{equation.3.17}{}}
\newlabel{eq:etaa@cref}{{[equation][17][3]3.17}{[1][9][]9}}
\newlabel{eq:etaT}{{3.18}{9}{Partition of Integral Domain}{equation.3.18}{}}
\newlabel{eq:etaT@cref}{{[equation][18][3]3.18}{[1][9][]9}}
\newlabel{eq:sup}{{3.19}{9}{Partition of Integral Domain}{equation.3.19}{}}
\newlabel{eq:sup@cref}{{[equation][19][3]3.19}{[1][9][]9}}
\newlabel{lem:HQ}{{3.7}{10}{Partition of Integral Domain}{lemma.3.7}{}}
\newlabel{lem:HQ@cref}{{[lemma][7][3]3.7}{[1][9][]10}}
\@writefile{toc}{\contentsline {section}{\numberline {4}Elementary Labelled Graph}{11}{section.4}\protected@file@percent }
\newlabel{def:ELG}{{4.3}{11}{Elementary Labelled Graph}{lemma.4.3}{}}
\newlabel{def:ELG@cref}{{[lemma][3][4]4.3}{[1][11][]11}}
\citation{reg}
\newlabel{ass3}{{3}{13}{Elementary Labelled Graph}{assumption.3}{}}
\newlabel{ass3@cref}{{[assumption][3][]3}{[1][13][]13}}
\newlabel{elgass1}{{4.3}{13}{Elementary Labelled Graph}{equation.4.3}{}}
\newlabel{elgass1@cref}{{[equation][3][4]4.3}{[1][13][]13}}
\newlabel{elgass2}{{4.4}{13}{Elementary Labelled Graph}{equation.4.4}{}}
\newlabel{elgass2@cref}{{[equation][4][4]4.4}{[1][13][]13}}
\newlabel{elgass3}{{4.5}{13}{Elementary Labelled Graph}{equation.4.5}{}}
\newlabel{elgass3@cref}{{[equation][5][4]4.5}{[1][13][]13}}
\newlabel{eq:proof1}{{4.6}{15}{Elementary Labelled Graph}{equation.4.6}{}}
\newlabel{eq:proof1@cref}{{[equation][6][4]4.6}{[1][15][]15}}
\newlabel{prop12}{{4.14}{16}{Elementary Labelled Graph}{lemma.4.14}{}}
\newlabel{prop12@cref}{{[lemma][14][4]4.14}{[1][16][]16}}
\@writefile{toc}{\contentsline {section}{\numberline {5}Solving the Generalised KPZ Equation}{16}{section.5}\protected@file@percent }
\@writefile{toc}{\contentsline {subsection}{\numberline {5.1}Discrete Model}{16}{subsection.5.1}\protected@file@percent }
\@writefile{toc}{\contentsline {subsection}{\numberline {5.2}Bounds on the Discrete Model}{16}{subsection.5.2}\protected@file@percent }
\citation{HQ15}
\citation{MH21}
\citation{MH21}
\citation{MH21}
\newlabel{eq:xiixibasic}{{5.1}{17}{Bounds on the Discrete Model}{equation.5.1}{}}
\newlabel{eq:xiixibasic@cref}{{[equation][1][5]5.1}{[1][17][]17}}
\newlabel{eq:xiixibasic2}{{5.2}{17}{Bounds on the Discrete Model}{equation.5.2}{}}
\newlabel{eq:xiixibasic2@cref}{{[equation][2][5]5.2}{[1][17][]17}}
\@writefile{toc}{\contentsline {subsubsection}{\numberline {5.2.1}General Criterion}{18}{subsubsection.5.2.1}\protected@file@percent }
\newlabel{prop:pcondition}{{5.1}{18}{General Criterion}{lemma.5.1}{}}
\newlabel{prop:pcondition@cref}{{[lemma][1][5]5.1}{[1][18][]18}}
\newlabel{cond1}{{5.3}{18}{General Criterion}{equation.5.3}{}}
\newlabel{cond1@cref}{{[equation][3][5]5.3}{[1][18][]18}}
\newlabel{cond3}{{5.4}{18}{General Criterion}{equation.5.4}{}}
\newlabel{cond3@cref}{{[equation][4][5]5.4}{[1][18][]18}}
\citation{MH21}
\@writefile{toc}{\contentsline {subsubsection}{\numberline {5.2.2}Renormalisation Procedure}{20}{subsubsection.5.2.2}\protected@file@percent }
\newlabel{eqdecomp}{{5.5}{21}{Renormalisation Procedure}{equation.5.5}{}}
\newlabel{eqdecomp@cref}{{[equation][5][5]5.5}{[1][21][]21}}
\newlabel{prop:1}{{5.5}{22}{Renormalisation Procedure}{lemma.5.5}{}}
\newlabel{prop:1@cref}{{[lemma][5][5]5.5}{[1][22][]22}}
\newlabel{tree}{{5.6}{23}{Renormalisation Procedure}{equation.5.6}{}}
\newlabel{tree@cref}{{[equation][6][5]5.6}{[1][23][]23}}
\newlabel{tree1}{{5.7}{23}{Renormalisation Procedure}{equation.5.7}{}}
\newlabel{tree1@cref}{{[equation][7][5]5.7}{[1][23][]23}}
\newlabel{tree2}{{5.8}{24}{Renormalisation Procedure}{equation.5.8}{}}
\newlabel{tree2@cref}{{[equation][8][5]5.8}{[1][24][]24}}
\@writefile{toc}{\contentsline {subsubsection}{\numberline {5.2.3}Pairing of Labelled Graphs}{25}{subsubsection.5.2.3}\protected@file@percent }
\newlabel{eqneg}{{5.9}{26}{Pairing of Labelled Graphs}{equation.5.9}{}}
\newlabel{eqneg@cref}{{[equation][9][5]5.9}{[1][26][]26}}
\newlabel{eqdecomp2}{{5.10}{27}{Pairing of Labelled Graphs}{equation.5.10}{}}
\newlabel{eqdecomp2@cref}{{[equation][10][5]5.10}{[1][27][]27}}
\citation{MH21}
\citation{MH21}
\newlabel{eq:decomp3}{{5.11}{28}{Pairing of Labelled Graphs}{equation.5.11}{}}
\newlabel{eq:decomp3@cref}{{[equation][11][5]5.11}{[1][28][]28}}
\citation{MH21}
\@writefile{toc}{\contentsline {subsubsection}{\numberline {5.2.4}Example Computations}{29}{subsubsection.5.2.4}\protected@file@percent }
\newlabel{eq94}{{5.12}{30}{Example Computations}{equation.5.12}{}}
\newlabel{eq94@cref}{{[equation][12][5]5.12}{[1][30][]30}}
\citation{MH21}
\citation{MH21}
\citation{MH21}
\citation{MH21}
\bibcite{A14}{1}
\bibcite{Berg85}{2}
\bibcite{BR18}{3}
\bibcite{Br1111}{4}
\bibcite{BB21}{5}
\bibcite{BCCH}{6}
\bibcite{BCFP}{7}
\bibcite{BE}{8}
\bibcite{BGHZ}{9}
\@writefile{lot}{\contentsline {table}{\numberline {1}{\ignorespaces List of symbols with negative homogeneity\relax }}{40}{table.caption.3}\protected@file@percent }
\providecommand*\caption@xref[2]{\@setref\relax\@undefined{#1}}
\newlabel{table1}{{1}{40}{List of symbols with negative homogeneity\relax }{table.caption.3}{}}
\newlabel{table1@cref}{{[table][1][]1}{[1][40][]40}}
\bibcite{BaiHos}{10}
\bibcite{BHZ}{11}
\bibcite{EMS}{12}
\bibcite{BP}{13}
\bibcite{BS}{14}
\bibcite{Butcher72}{15}
\bibcite{CCHS}{16}
\bibcite{CEM}{17}
\bibcite{CH16}{18}
\bibcite{CHS}{19}
\bibcite{CHV10}{20}
\bibcite{ChaLiv}{21}
\bibcite{CK1}{22}
\bibcite{CK2}{23}
\bibcite{CMW}{24}
\bibcite{EH17}{25}
\bibcite{EM14}{26}
\bibcite{F}{27}
\bibcite{F2018}{28}
\bibcite{GL}{29}
\bibcite{FrizHai}{30}
\bibcite{GL}{31}
\bibcite{Guin1}{32}
\bibcite{Guin2}{33}
\bibcite{Gub04}{34}
\bibcite{Gub10}{35}
\bibcite{reg}{36}
\bibcite{Hepp}{37}
\bibcite{Lyo98}{38}
\bibcite{HM18}{39}
\bibcite{Felix}{40}
\bibcite{HQ15}{41}
\bibcite{H1}{42}
\bibcite{H2}{43}
\bibcite{K}{44}
\bibcite{MS}{45}
\bibcite{MH21}{46}
\bibcite{Mat18}{47}
\bibcite{Sw69}{48}
\bibcite{Zim}{49}
