<<<<<<< HEAD
\contentsline {section}{\numberline {1}Setup}{1}{section.1}
\contentsline {section}{\numberline {2}Multiple Stochastic Integrals}{3}{section.2}
\contentsline {section}{\numberline {3}Generalised Bracket Processes}{4}{section.3}
\contentsline {section}{\numberline {4}Stochastic Integrals}{5}{section.4}
\contentsline {section}{\numberline {5}Chaos Expansion}{5}{section.5}
\contentsline {section}{\numberline {6}Moment bounds}{6}{section.6}
\contentsline {section}{\numberline {7}Labelled Graphs}{6}{section.7}
\contentsline {subsection}{\numberline {7.1}Directed MultiGraph and Contracted Graphs}{6}{subsection.7.1}
\contentsline {subsection}{\numberline {7.2}Generalised Convolutions}{8}{subsection.7.2}
\contentsline {subsection}{\numberline {7.3}Partition of Integral Domain}{11}{subsection.7.3}
\contentsline {subsection}{\numberline {7.4}Partial Proof of Theorem \ref {th:bnd}}{16}{subsection.7.4}
\contentsline {section}{\numberline {8}Elementary Labelled Graph}{16}{section.8}
\contentsline {section}{\numberline {9}Solving the Generalised KPZ Equation}{21}{section.9}
\contentsline {subsection}{\numberline {9.1}Discrete Model}{21}{subsection.9.1}
\contentsline {subsection}{\numberline {9.2}Bounds on the Discrete Model}{26}{subsection.9.2}
\contentsline {subsubsection}{\numberline {9.2.1}Renormalisation Procedure}{27}{subsubsection.9.2.1}
\contentsline {subsubsection}{\numberline {9.2.2}Pairing of Labelled Graphs}{32}{subsubsection.9.2.2}
=======
\contentsline {section}{\numberline {1}Setup}{1}{section.1}%
\contentsline {section}{\numberline {2}Multiple Stochastic Integrals}{3}{section.2}%
\contentsline {section}{\numberline {3}Generalised Bracket Processes}{4}{section.3}%
\contentsline {section}{\numberline {4}Stochastic Integrals}{5}{section.4}%
\contentsline {section}{\numberline {5}Chaos Expansion}{5}{section.5}%
\contentsline {section}{\numberline {6}Moment bounds}{6}{section.6}%
\contentsline {section}{\numberline {7}Labelled Graphs}{6}{section.7}%
\contentsline {subsection}{\numberline {7.1}Directed MultiGraph and Contracted Graphs}{6}{subsection.7.1}%
\contentsline {subsection}{\numberline {7.2}Generalised Convolutions}{8}{subsection.7.2}%
\contentsline {subsection}{\numberline {7.3}Partition of Integral Domain}{11}{subsection.7.3}%
\contentsline {subsection}{\numberline {7.4}Partial Proof of Theorem \ref {th:bnd}}{16}{subsection.7.4}%
\contentsline {section}{\numberline {8}Elementary Labelled Graph}{16}{section.8}%
\contentsline {section}{\numberline {9}Solving the Generalised KPZ Equation}{21}{section.9}%
\contentsline {subsection}{\numberline {9.1}Discrete Model}{21}{subsection.9.1}%
\contentsline {subsection}{\numberline {9.2}Bounds on the Discrete Model}{26}{subsection.9.2}%
\contentsline {subsubsection}{\numberline {9.2.1}Renormalisation Procedure}{27}{subsubsection.9.2.1}%
\contentsline {subsubsection}{\numberline {9.2.2}Pairing of Labelled Graphs}{32}{subsubsection.9.2.2}%
>>>>>>> 7dc75010845e1c11b4cd4e9c0c026e8ed3fbac42
