\relax 
\providecommand\hyper@newdestlabel[2]{}
\providecommand\HyperFirstAtBeginDocument{\AtBeginDocument}
\HyperFirstAtBeginDocument{\ifx\hyper@anchor\@undefined
\global\let\oldcontentsline\contentsline
\gdef\contentsline#1#2#3#4{\oldcontentsline{#1}{#2}{#3}}
\global\let\oldnewlabel\newlabel
\gdef\newlabel#1#2{\newlabelxx{#1}#2}
\gdef\newlabelxx#1#2#3#4#5#6{\oldnewlabel{#1}{{#2}{#3}}}
\AtEndDocument{\ifx\hyper@anchor\@undefined
\let\contentsline\oldcontentsline
\let\newlabel\oldnewlabel
\fi}
\fi}
\global\let\hyper@last\relax 
\gdef\HyperFirstAtBeginDocument#1{#1}
\providecommand\HyField@AuxAddToFields[1]{}
\providecommand\HyField@AuxAddToCoFields[2]{}
\providecommand\tcolorbox@label[2]{}
\@writefile{toc}{\contentsline {section}{\numberline {1}Setup}{1}{section.1}}
\newlabel{sec:1}{{1}{1}{Setup}{section.1}{}}
\newlabel{sec:1@cref}{{[section][1][]1}{[1][1][]1}}
\newlabel{eq:tempd}{{1.3}{2}{Setup}{equation.1.3}{}}
\newlabel{eq:tempd@cref}{{[equation][3][1]1.3}{[1][2][]2}}
<<<<<<< HEAD
\@writefile{toc}{\contentsline {section}{\numberline {2}Multiple Stochastic Integrals}{3}{section.2}}
=======
\@writefile{toc}{\contentsline {section}{\numberline {2}Multiple Stochastic Integrals}{3}{section.2}\protected@file@percent }
>>>>>>> 7dc75010845e1c11b4cd4e9c0c026e8ed3fbac42
\newlabel{ass1}{{2}{3}{Multiple Stochastic Integrals}{section.2}{}}
\newlabel{ass1@cref}{{[section][2][]2}{[1][2][]3}}
\newlabel{lem:2.1}{{2.1}{3}{Multiple Stochastic Integrals}{lemma.2.1}{}}
\newlabel{lem:2.1@cref}{{[lemma][1][2]2.1}{[1][3][]3}}
\newlabel{eq:CI0}{{2.4}{4}{Multiple Stochastic Integrals}{equation.2.4}{}}
\newlabel{eq:CI0@cref}{{[equation][4][2]2.4}{[1][3][]4}}
<<<<<<< HEAD
\@writefile{toc}{\contentsline {section}{\numberline {3}Generalised Bracket Processes}{4}{section.3}}
\@writefile{toc}{\contentsline {section}{\numberline {4}Stochastic Integrals}{5}{section.4}}
=======
\@writefile{toc}{\contentsline {section}{\numberline {3}Generalised Bracket Processes}{4}{section.3}\protected@file@percent }
\@writefile{toc}{\contentsline {section}{\numberline {4}Stochastic Integrals}{5}{section.4}\protected@file@percent }
>>>>>>> 7dc75010845e1c11b4cd4e9c0c026e8ed3fbac42
\newlabel{sec:4}{{4}{5}{Stochastic Integrals}{section.4}{}}
\newlabel{sec:4@cref}{{[section][4][]4}{[1][5][]5}}
\newlabel{eq:CI}{{4.2}{5}{Stochastic Integrals}{equation.4.2}{}}
\newlabel{eq:CI@cref}{{[equation][2][4]4.2}{[1][5][]5}}
<<<<<<< HEAD
\@writefile{toc}{\contentsline {section}{\numberline {5}Chaos Expansion}{5}{section.5}}
\newlabel{prop:Chex}{{5.1}{6}{Chaos Expansion}{lemma.5.1}{}}
\newlabel{prop:Chex@cref}{{[lemma][1][5]5.1}{[1][5][]6}}
\@writefile{toc}{\contentsline {section}{\numberline {6}Moment bounds}{6}{section.6}}
\newlabel{prop:normbnd}{{6.1}{6}{Moment bounds}{lemma.6.1}{}}
\newlabel{prop:normbnd@cref}{{[lemma][1][6]6.1}{[1][6][]6}}
\@writefile{toc}{\contentsline {section}{\numberline {7}Labelled Graphs}{6}{section.7}}
\@writefile{toc}{\contentsline {subsection}{\numberline {7.1}Directed MultiGraph and Contracted Graphs}{6}{subsection.7.1}}
=======
\@writefile{toc}{\contentsline {section}{\numberline {5}Chaos Expansion}{5}{section.5}\protected@file@percent }
\newlabel{prop:Chex}{{5.1}{6}{Chaos Expansion}{lemma.5.1}{}}
\newlabel{prop:Chex@cref}{{[lemma][1][5]5.1}{[1][5][]6}}
\@writefile{toc}{\contentsline {section}{\numberline {6}Moment bounds}{6}{section.6}\protected@file@percent }
\newlabel{prop:normbnd}{{6.1}{6}{Moment bounds}{lemma.6.1}{}}
\newlabel{prop:normbnd@cref}{{[lemma][1][6]6.1}{[1][6][]6}}
\@writefile{toc}{\contentsline {section}{\numberline {7}Labelled Graphs}{6}{section.7}\protected@file@percent }
\@writefile{toc}{\contentsline {subsection}{\numberline {7.1}Directed MultiGraph and Contracted Graphs}{6}{subsection.7.1}\protected@file@percent }
>>>>>>> 7dc75010845e1c11b4cd4e9c0c026e8ed3fbac42
\newlabel{eq:nrm}{{7.1}{7}{Directed MultiGraph and Contracted Graphs}{equation.7.1}{}}
\newlabel{eq:nrm@cref}{{[equation][1][7]7.1}{[1][7][]7}}
\newlabel{ass:grph}{{2}{7}{Directed MultiGraph and Contracted Graphs}{assumption.2}{}}
\newlabel{ass:grph@cref}{{[assumption][2][]2}{[1][7][]7}}
\newlabel{eq:ass2e1}{{7.2}{7}{Directed MultiGraph and Contracted Graphs}{equation.7.2}{}}
\newlabel{eq:ass2e1@cref}{{[equation][2][7]7.2}{[1][7][]7}}
\newlabel{eq:ass2e2}{{7.3}{7}{Directed MultiGraph and Contracted Graphs}{equation.7.3}{}}
\newlabel{eq:ass2e2@cref}{{[equation][3][7]7.3}{[1][7][]7}}
<<<<<<< HEAD
\@writefile{toc}{\contentsline {subsection}{\numberline {7.2}Generalised Convolutions}{8}{subsection.7.2}}
=======
\@writefile{toc}{\contentsline {subsection}{\numberline {7.2}Generalised Convolutions}{8}{subsection.7.2}\protected@file@percent }
>>>>>>> 7dc75010845e1c11b4cd4e9c0c026e8ed3fbac42
\newlabel{eq:gc}{{7.4}{8}{Generalised Convolutions}{equation.7.4}{}}
\newlabel{eq:gc@cref}{{[equation][4][7]7.4}{[1][8][]8}}
\newlabel{re:gcr}{{7.4}{8}{Generalised Convolutions}{lemma.7.4}{}}
\newlabel{re:gcr@cref}{{[lemma][4][7]7.4}{[1][8][]8}}
\newlabel{th:bnd}{{7.5}{8}{Generalised Convolutions}{lemma.7.5}{}}
\newlabel{th:bnd@cref}{{[lemma][5][7]7.5}{[1][8][]8}}
\newlabel{eq:bnd}{{7.6}{9}{Generalised Convolutions}{equation.7.6}{}}
\newlabel{eq:bnd@cref}{{[equation][6][7]7.6}{[1][8][]9}}
\newlabel{eq:lbl}{{7.8}{9}{Generalised Convolutions}{equation.7.8}{}}
\newlabel{eq:lbl@cref}{{[equation][8][7]7.8}{[1][9][]9}}
\newlabel{cor:bnd}{{7.7}{9}{Generalised Convolutions}{lemma.7.7}{}}
\newlabel{cor:bnd@cref}{{[lemma][7][7]7.7}{[1][9][]9}}
\newlabel{eq:bnd2}{{7.9}{9}{Generalised Convolutions}{equation.7.9}{}}
\newlabel{eq:bnd2@cref}{{[equation][9][7]7.9}{[1][9][]9}}
\citation{HQ15}
\newlabel{lem:decomp}{{7.8}{10}{Generalised Convolutions}{lemma.7.8}{}}
\newlabel{lem:decomp@cref}{{[lemma][8][7]7.8}{[1][10][]10}}
\newlabel{a:DKernels_support}{{7.8}{10}{Generalised Convolutions}{lemma.7.8}{}}
\newlabel{a:DKernels_support@cref}{{[lemma][8][7]7.8}{[1][10][]10}}
\newlabel{a:DKernels_bounds}{{7.8}{10}{Generalised Convolutions}{lemma.7.8}{}}
\newlabel{a:DKernels_bounds@cref}{{[lemma][8][7]7.8}{[1][10][]10}}
\newlabel{eq:minbnd}{{7.15}{11}{Generalised Convolutions}{equation.7.15}{}}
\newlabel{eq:minbnd@cref}{{[equation][15][7]7.15}{[1][11][]11}}
<<<<<<< HEAD
\@writefile{toc}{\contentsline {subsection}{\numberline {7.3}Partition of Integral Domain}{11}{subsection.7.3}}
=======
\@writefile{toc}{\contentsline {subsection}{\numberline {7.3}Partition of Integral Domain}{11}{subsection.7.3}\protected@file@percent }
>>>>>>> 7dc75010845e1c11b4cd4e9c0c026e8ed3fbac42
\newlabel{eq:labelbnd}{{7.16}{11}{Partition of Integral Domain}{equation.7.16}{}}
\newlabel{eq:labelbnd@cref}{{[equation][16][7]7.16}{[1][11][]11}}
\newlabel{eq:intbnd}{{7.17}{12}{Partition of Integral Domain}{equation.7.17}{}}
\newlabel{eq:intbnd@cref}{{[equation][17][7]7.17}{[1][12][]12}}
\newlabel{eq:intbnd1}{{7.18}{12}{Partition of Integral Domain}{equation.7.18}{}}
\newlabel{eq:intbnd1@cref}{{[equation][18][7]7.18}{[1][12][]12}}
\citation{reg}
\newlabel{lem:D}{{7.12}{13}{Partition of Integral Domain}{lemma.7.12}{}}
\newlabel{lem:D@cref}{{[lemma][12][7]7.12}{[1][13][]13}}
\newlabel{lem:d1}{{7.13}{13}{Partition of Integral Domain}{lemma.7.13}{}}
\newlabel{lem:d1@cref}{{[lemma][13][7]7.13}{[1][13][]13}}
\newlabel{eq:etaa}{{7.20}{14}{Partition of Integral Domain}{equation.7.20}{}}
\newlabel{eq:etaa@cref}{{[equation][20][7]7.20}{[1][14][]14}}
\newlabel{eq:sup}{{7.21}{14}{Partition of Integral Domain}{equation.7.21}{}}
\newlabel{eq:sup@cref}{{[equation][21][7]7.21}{[1][14][]14}}
\newlabel{th:HQ}{{7.14}{15}{Partition of Integral Domain}{lemma.7.14}{}}
\newlabel{th:HQ@cref}{{[lemma][14][7]7.14}{[1][15][]15}}
<<<<<<< HEAD
\@writefile{toc}{\contentsline {subsection}{\numberline {7.4}Partial Proof of Theorem \ref  {th:bnd}}{16}{subsection.7.4}}
\@writefile{toc}{\contentsline {section}{\numberline {8}Elementary Labelled Graph}{16}{section.8}}
=======
\@writefile{toc}{\contentsline {subsection}{\numberline {7.4}Partial Proof of Theorem \ref  {th:bnd}}{16}{subsection.7.4}\protected@file@percent }
\@writefile{toc}{\contentsline {section}{\numberline {8}Elementary Labelled Graph}{16}{section.8}\protected@file@percent }
>>>>>>> 7dc75010845e1c11b4cd4e9c0c026e8ed3fbac42
\newlabel{def:ELG}{{8.3}{16}{Elementary Labelled Graph}{lemma.8.3}{}}
\newlabel{def:ELG@cref}{{[lemma][3][8]8.3}{[1][16][]16}}
\newlabel{ass3}{{3}{18}{Elementary Labelled Graph}{assumption.3}{}}
\newlabel{ass3@cref}{{[assumption][3][]3}{[1][18][]18}}
\newlabel{elgass1}{{8.3}{18}{Elementary Labelled Graph}{equation.8.3}{}}
\newlabel{elgass1@cref}{{[equation][3][8]8.3}{[1][18][]18}}
\newlabel{elgass2}{{8.4}{18}{Elementary Labelled Graph}{equation.8.4}{}}
\newlabel{elgass2@cref}{{[equation][4][8]8.4}{[1][18][]18}}
\newlabel{elgass3}{{8.5}{18}{Elementary Labelled Graph}{equation.8.5}{}}
\newlabel{elgass3@cref}{{[equation][5][8]8.5}{[1][18][]18}}
\newlabel{eq:proof1}{{8.6}{20}{Elementary Labelled Graph}{equation.8.6}{}}
\newlabel{eq:proof1@cref}{{[equation][6][8]8.6}{[1][20][]20}}
\newlabel{prop12}{{8.13}{21}{Elementary Labelled Graph}{lemma.8.13}{}}
\newlabel{prop12@cref}{{[lemma][13][8]8.13}{[1][21][]21}}
<<<<<<< HEAD
\@writefile{toc}{\contentsline {section}{\numberline {9}Solving the Generalised KPZ Equation}{21}{section.9}}
\@writefile{toc}{\contentsline {subsection}{\numberline {9.1}Discrete Model}{21}{subsection.9.1}}
=======
\@writefile{toc}{\contentsline {section}{\numberline {9}Solving the Generalised KPZ Equation}{21}{section.9}\protected@file@percent }
\@writefile{toc}{\contentsline {subsection}{\numberline {9.1}Discrete Model}{21}{subsection.9.1}\protected@file@percent }
>>>>>>> 7dc75010845e1c11b4cd4e9c0c026e8ed3fbac42
\citation{HM18}
\citation{reg}
\newlabel{eq:gkpz}{{{gKPZ}}{22}{Discrete Model}{AMS.3}{}}
\newlabel{eq:gkpz@cref}{{[equation][2147483647][]{gKPZ}}{[1][21][]22}}
\newlabel{eq:sgKPZ}{{9.1}{22}{Discrete Model}{equation.9.1}{}}
\newlabel{eq:sgKPZ@cref}{{[equation][1][9]9.1}{[1][22][]22}}
\newlabel{def:StrGroup}{{9.3}{23}{Discrete Model}{equation.9.3}{}}
\newlabel{def:StrGroup@cref}{{[equation][3][9]9.3}{[1][22][]23}}
\newlabel{eq:rule}{{9.4}{23}{Discrete Model}{equation.9.4}{}}
\newlabel{eq:rule@cref}{{[equation][4][9]9.4}{[1][23][]23}}
\citation{HM18}
\citation{EH17}
\citation{Mat18}
\citation{Mat18}
\citation{Mat18}
\citation{reg}
<<<<<<< HEAD
\@writefile{toc}{\contentsline {subsection}{\numberline {9.2}Bounds on the Discrete Model}{26}{subsection.9.2}}
\@writefile{toc}{\contentsline {subsubsection}{\numberline {9.2.1}Renormalisation Procedure}{27}{subsubsection.9.2.1}}
=======
\@writefile{toc}{\contentsline {subsection}{\numberline {9.2}Bounds on the Discrete Model}{26}{subsection.9.2}\protected@file@percent }
\@writefile{toc}{\contentsline {subsubsection}{\numberline {9.2.1}Renormalisation Procedure}{27}{subsubsection.9.2.1}\protected@file@percent }
>>>>>>> 7dc75010845e1c11b4cd4e9c0c026e8ed3fbac42
\newlabel{eqdecomp}{{9.8}{28}{Renormalisation Procedure}{equation.9.8}{}}
\newlabel{eqdecomp@cref}{{[equation][8][9]9.8}{[1][28][]28}}
\newlabel{prop:1}{{9.5}{29}{Renormalisation Procedure}{lemma.9.5}{}}
\newlabel{prop:1@cref}{{[lemma][5][9]9.5}{[1][29][]29}}
\newlabel{tree}{{9.9}{30}{Renormalisation Procedure}{equation.9.9}{}}
\newlabel{tree@cref}{{[equation][9][9]9.9}{[1][30][]30}}
\newlabel{tree1}{{9.10}{30}{Renormalisation Procedure}{equation.9.10}{}}
\newlabel{tree1@cref}{{[equation][10][9]9.10}{[1][30][]30}}
\newlabel{tree2}{{9.11}{32}{Renormalisation Procedure}{equation.9.11}{}}
\newlabel{tree2@cref}{{[equation][11][9]9.11}{[1][31][]32}}
<<<<<<< HEAD
\@writefile{toc}{\contentsline {subsubsection}{\numberline {9.2.2}Pairing of Labelled Graphs}{32}{subsubsection.9.2.2}}
=======
\@writefile{toc}{\contentsline {subsubsection}{\numberline {9.2.2}Pairing of Labelled Graphs}{32}{subsubsection.9.2.2}\protected@file@percent }
>>>>>>> 7dc75010845e1c11b4cd4e9c0c026e8ed3fbac42
\newlabel{eqneg}{{9.12}{33}{Pairing of Labelled Graphs}{equation.9.12}{}}
\newlabel{eqneg@cref}{{[equation][12][9]9.12}{[1][33][]33}}
\newlabel{eqdecomp2}{{9.13}{35}{Pairing of Labelled Graphs}{equation.9.13}{}}
\newlabel{eqdecomp2@cref}{{[equation][13][9]9.13}{[1][35][]35}}
\newlabel{eq:decomp3}{{9.14}{35}{Pairing of Labelled Graphs}{equation.9.14}{}}
\newlabel{eq:decomp3@cref}{{[equation][14][9]9.14}{[1][35][]35}}
\newlabel{eq94}{{9.15}{37}{Pairing of Labelled Graphs}{equation.9.15}{}}
\newlabel{eq94@cref}{{[equation][15][9]9.15}{[1][37][]37}}
\newlabel{eq94}{{9.16}{37}{Pairing of Labelled Graphs}{equation.9.16}{}}
\newlabel{eq94@cref}{{[equation][16][9]9.16}{[1][37][]37}}
<<<<<<< HEAD
\newlabel{eq96}{{9.17}{38}{Pairing of Labelled Graphs}{equation.9.17}{}}
\newlabel{eq96@cref}{{[equation][17][9]9.17}{[1][37][]38}}
=======
\newlabel{eq96}{{9.17}{37}{Pairing of Labelled Graphs}{equation.9.17}{}}
\newlabel{eq96@cref}{{[equation][17][9]9.17}{[1][37][]37}}
>>>>>>> 7dc75010845e1c11b4cd4e9c0c026e8ed3fbac42
\bibcite{A14}{1}
\bibcite{BR18}{2}
\bibcite{Br1111}{3}
\bibcite{BB21}{4}
\bibcite{BCCH}{5}
\bibcite{BCFP}{6}
\bibcite{BE}{7}
\bibcite{BGHZ}{8}
\bibcite{BaiHos}{9}
\bibcite{BHZ}{10}
\bibcite{EMS}{11}
\bibcite{BP}{12}
\bibcite{BS}{13}
\bibcite{Butcher72}{14}
\bibcite{CCHS}{15}
\bibcite{CEM}{16}
\bibcite{CH16}{17}
\bibcite{CHS}{18}
\bibcite{CHV10}{19}
\bibcite{ChaLiv}{20}
\bibcite{CK1}{21}
\bibcite{CK2}{22}
\bibcite{CMW}{23}
\bibcite{EH17}{24}
\bibcite{EM14}{25}
\bibcite{F2018}{26}
\bibcite{FrizHai}{27}
\bibcite{GL}{28}
\bibcite{Guin1}{29}
\bibcite{Guin2}{30}
\bibcite{Gub04}{31}
\bibcite{Gub10}{32}
\bibcite{reg}{33}
\bibcite{Hepp}{34}
\bibcite{Lyo98}{35}
\bibcite{HM18}{36}
\bibcite{Felix}{37}
\bibcite{HQ15}{38}
\bibcite{MS}{39}
\bibcite{Mat18}{40}
\bibcite{Zim}{41}
<<<<<<< HEAD
=======
\gdef \@abspage@last{41}
>>>>>>> 7dc75010845e1c11b4cd4e9c0c026e8ed3fbac42
