\relax 
\providecommand\hyper@newdestlabel[2]{}
\providecommand\HyperFirstAtBeginDocument{\AtBeginDocument}
\HyperFirstAtBeginDocument{\ifx\hyper@anchor\@undefined
\global\let\oldcontentsline\contentsline
\gdef\contentsline#1#2#3#4{\oldcontentsline{#1}{#2}{#3}}
\global\let\oldnewlabel\newlabel
\gdef\newlabel#1#2{\newlabelxx{#1}#2}
\gdef\newlabelxx#1#2#3#4#5#6{\oldnewlabel{#1}{{#2}{#3}}}
\AtEndDocument{\ifx\hyper@anchor\@undefined
\let\contentsline\oldcontentsline
\let\newlabel\oldnewlabel
\fi}
\fi}
\global\let\hyper@last\relax 
\gdef\HyperFirstAtBeginDocument#1{#1}
\providecommand\HyField@AuxAddToFields[1]{}
\providecommand\HyField@AuxAddToCoFields[2]{}
\citation{EH17}
\citation{MH21}
\citation{reg}
\citation{reg}
\citation{BHZ}
\citation{BP57,KH69,WZ69}
\citation{CH16}
\citation{BHZ}
\citation{BCCH}
\citation{BG97,MW17,K16}
\citation{BG97}
\citation{GJ10,GJ14}
\citation{GP18}
\citation{GP16,DGP17}
\gdef\hy@title{Convergence of space-discretised gKPZ via Regularity Structures}
\thanksnewlabel{e1@email}{{yvain.bruned@univ-lorraine.fr}{1}}
\thanksnewlabel{e2@email}{{M.U.Nadeem@sms.ed.ac.uk}{1}}
\thanksnewlabel{Athanks}{{1}{1}}
\thanksnewlabel{e1thanks}{{a}{1}}
\thanksnewlabel{Bthanks}{{2}{1}}
\thanksnewlabel{e2thanks}{{b}{1}}
\gdef\hy@author{Yvain Bruned and Usama Nadeem}
\gdef\hy@subject{Submitted to the Annals of Probability }
\gdef\hy@keywords{60L30, 60L90, 60H15, Discrete models, Generalised KPZ equation, Regularity Structures, Stochastic PDE}
\gdef\author@num{2}
\@writefile{toc}{\contentsline {section}{\numberline {1}Introduction}{1}{section.1}\protected@file@percent }
\newlabel{eq:sSPDE}{{1}{1}{Introduction}{equation.1.1}{}}
\citation{HM18}
\citation{EH17}
\citation{HM18}
\citation{CM18}
\citation{MH21}
\citation{Mat18}
\citation{reg}
\citation{BGHZ22}
\citation{CH16}
\citation{C22,CCHS20,CCHS22}
\citation{GIP13}
\citation{ZZ14}
\citation{ZZ15}
\citation{GP17}
\citation{CGP16}
\citation{MP19}
\citation{MH21}
\citation{MH21}
\newlabel{eq:gKPZ}{{1}{2}{Introduction}{equation.1.1}{}}
\bibcite{BB21}{{1}{}{{}}{{}}}
\bibcite{BB21b}{{2}{}{{}}{{}}}
\bibcite{BCCH}{{3}{}{{}}{{}}}
\bibcite{BG97}{{4}{}{{}}{{}}}
\bibcite{BGHZ22}{{5}{}{{}}{{}}}
\bibcite{BHZ}{{6}{}{{}}{{}}}
\bibcite{EMS}{{7}{}{{}}{{}}}
\bibcite{BP57}{{8}{}{{}}{{}}}
\bibcite{BR18}{{9}{}{{}}{{}}}
\bibcite{CCHS20}{{10}{}{{}}{{}}}
\bibcite{CCHS22}{{11}{}{{}}{{}}}
\bibcite{CGP16}{{12}{}{{}}{{}}}
\bibcite{CH16}{{13}{}{{}}{{}}}
\bibcite{C22}{{14}{}{{}}{{}}}
\bibcite{CM18}{{15}{}{{}}{{}}}
\bibcite{DGP17}{{16}{}{{}}{{}}}
\newlabel{eq:gKPZcon}{{1}{3}{Introduction}{equation.1.1}{}}
\@writefile{toc}{\contentsline {section}{References}{3}{section*.4}\protected@file@percent }
\bibcite{EH17}{{17}{}{{}}{{}}}
\bibcite{MH21}{{18}{}{{}}{{}}}
\bibcite{GIP13}{{19}{}{{}}{{}}}
\bibcite{GJ10}{{20}{}{{}}{{}}}
\bibcite{GJ14}{{21}{}{{}}{{}}}
\bibcite{GP16}{{22}{}{{}}{{}}}
\bibcite{GP17}{{23}{}{{}}{{}}}
\bibcite{GP18}{{24}{}{{}}{{}}}
\bibcite{reg}{{25}{}{{}}{{}}}
\bibcite{KH69}{{26}{}{{}}{{}}}
\bibcite{HI67}{{27}{}{{}}{{}}}
\bibcite{HM18}{{28}{}{{}}{{}}}
\bibcite{HP15}{{29}{}{{}}{{}}}
\bibcite{HQ15}{{30}{}{{}}{{}}}
\bibcite{K16}{{31}{}{{}}{{}}}
\bibcite{LOT}{{32}{}{{}}{{}}}
\bibcite{LOTT}{{33}{}{{}}{{}}}
\bibcite{Mat18}{{34}{}{{}}{{}}}
\bibcite{MP19}{{35}{}{{}}{{}}}
\bibcite{MW17}{{36}{}{{}}{{}}}
\bibcite{MY89}{{37}{}{{}}{{}}}
\bibcite{OSSW}{{38}{}{{}}{{}}}
\bibcite{Wick50}{{39}{}{{}}{{}}}
\bibcite{WZ69}{{40}{}{{}}{{}}}
\bibcite{ZZ14}{{41}{}{{}}{{}}}
\bibcite{ZZ15}{{42}{}{{}}{{}}}
\providecommand\NAT@force@numbers{}\NAT@force@numbers
\gdef \@abspage@last{5}
