\relax 
\providecommand\hyper@newdestlabel[2]{}
\providecommand\HyperFirstAtBeginDocument{\AtBeginDocument}
\HyperFirstAtBeginDocument{\ifx\hyper@anchor\@undefined
\global\let\oldcontentsline\contentsline
\gdef\contentsline#1#2#3#4{\oldcontentsline{#1}{#2}{#3}}
\global\let\oldnewlabel\newlabel
\gdef\newlabel#1#2{\newlabelxx{#1}#2}
\gdef\newlabelxx#1#2#3#4#5#6{\oldnewlabel{#1}{{#2}{#3}}}
\AtEndDocument{\ifx\hyper@anchor\@undefined
\let\contentsline\oldcontentsline
\let\newlabel\oldnewlabel
\fi}
\fi}
\global\let\hyper@last\relax 
\gdef\HyperFirstAtBeginDocument#1{#1}
\providecommand\HyField@AuxAddToFields[1]{}
\providecommand\HyField@AuxAddToCoFields[2]{}
\citation{EH17}
\citation{MH21}
\citation{reg}
\gdef\hy@title{Convergence of space-discretised gKPZ via Regularity Structures}
\thanksnewlabel{e1@email}{{yvain.bruned@univ-lorraine.fr}{1}}
\thanksnewlabel{e2@email}{{M.U.Nadeem@sms.ed.ac.uk}{1}}
\thanksnewlabel{Athanks}{{1}{1}}
\thanksnewlabel{e1thanks}{{a}{1}}
\thanksnewlabel{Bthanks}{{2}{1}}
\thanksnewlabel{e2thanks}{{b}{1}}
\gdef\hy@author{Yvain Bruned and Usama Nadeem}
\gdef\hy@subject{Submitted to the Annals of Probability }
\gdef\hy@keywords{60L30, 60L90, 60H15, Discrete models, Generalised KPZ equation, Regularity Structures, Stochastic PDE}
\gdef\author@num{2}
\@writefile{toc}{\contentsline {section}{\numberline {1}Introduction}{1}{section.1}\protected@file@percent }
\newlabel{eq:sSPDE}{{1.1}{1}{Introduction}{equation.1.1}{}}
\citation{reg}
\citation{BHZ}
\citation{BP57,KH69,WZ69}
\citation{CH16}
\citation{BHZ}
\citation{BCCH}
\citation{BG97,MW17,K16}
\citation{BG97}
\citation{GJ10,GJ14}
\citation{GP18}
\citation{GP16,DGP17}
\citation{HM18}
\citation{EH17}
\citation{HM18}
\citation{CM18}
\citation{MH21}
\citation{Mat18}
\citation{reg}
\citation{BGHZ22}
\citation{CH16}
\citation{C22,CCHS20,CCHS22}
\citation{GIP13}
\citation{ZZ14}
\citation{ZZ15}
\citation{GP17}
\citation{CGP16}
\citation{MP19}
\citation{MH21}
\citation{MH21}
\citation{BCCH}
\citation{BGHZ22}
\newlabel{eq:gKPZ}{{gKPZ}{3}{Introduction}{equation.1.1}{}}
\newlabel{eq:gKPZcon}{{1.2}{3}{Introduction}{equation.1.2}{}}
\newlabel{eq:gKPZ1}{{1.3}{3}{Introduction}{equation.1.3}{}}
\newlabel{eq:gKPZ2}{{1.4}{3}{Introduction}{equation.1.4}{}}
\citation{MH21}
\citation{MH21}
\citation{MH21}
\citation{MH21}
\newlabel{ass:cyc}{{1}{4}{}{assumption.1}{}}
\citation{reg}
\citation{MH21}
\citation{HQ15}
\citation{HQ15,MH21}
\citation{HQ15}
\citation{HQ15}
\citation{CH16}
\citation{OSSW,LOT,LOTT}
\citation{BR18}
\citation{BB21,BB21b}
\citation{MH21}
\citation{BR18}
\citation{HQ15}
\citation{EH17}
\citation{MH21}
\newlabel{sec:DisRS}{{2}{6}{Discrete Regularity Structures}{section.2}{}}
\@writefile{toc}{\contentsline {section}{\numberline {2}Discrete Regularity Structures}{6}{section.2}\protected@file@percent }
\newlabel{eq:discreteHolder}{{2.2}{7}{Discrete Regularity Structures}{equation.2.2}{}}
\@writefile{toc}{\contentsline {subsection}{\numberline {2.1}Discrete Models}{7}{subsection.2.1}\protected@file@percent }
\newlabel{def:regstr}{{2.2}{7}{Regularity Structures}{theorem.2.2}{}}
\newlabel{rules_gKPZ}{{2.3}{7}{Discrete Models}{equation.2.3}{}}
\citation{HQ15}
\citation{reg}
\newlabel{eq:Greens}{{2.7}{9}{Discrete Models}{equation.2.7}{}}
\newlabel{def:admmodel}{{2.5}{9}{Admissible Models}{theorem.2.5}{}}
\newlabel{eq:Xk}{{2.10}{9}{Admissible Models}{equation.2.10}{}}
\newlabel{eq:I}{{2.11}{9}{Admissible Models}{equation.2.11}{}}
\newlabel{eq:product}{{2.14}{9}{Discrete Models}{equation.2.14}{}}
\citation{reg}
\citation{EH17}
\citation{EH17}
\citation{EH17}
\citation{EH17}
\citation{MH21}
\citation{BCCH}
\citation{BCCH}
\citation{BHZ}
\newlabel{eq:weightedDgamma}{{2.15}{10}{Discrete Model}{equation.2.15}{}}
\newlabel{eq:absfixpoint}{{2.16}{10}{Discrete Models}{equation.2.16}{}}
\citation{BHZ}
\citation{BHZ}
\citation{BR18}
\citation{BB21,BB21b}
\citation{BCCH}
\newlabel{table1}{{2.1}{11}{Discrete Models}{equation.2.19}{}}
\@writefile{lot}{\contentsline {table}{\numberline {1}{\ignorespaces List of symbols with negative homogeneity}}{11}{table.1}\protected@file@percent }
\newlabel{table1}{{1}{11}{List of symbols with negative homogeneity}{table.1}{}}
\citation{BHZ}
\citation{BR18}
\newlabel{sec:RnmMdl}{{2.2}{12}{Renormalised Model}{subsection.2.2}{}}
\@writefile{toc}{\contentsline {subsection}{\numberline {2.2}Renormalised Model}{12}{subsection.2.2}\protected@file@percent }
\newlabel{treeproduct}{{2.20}{12}{Renormalised Model}{equation.2.20}{}}
\citation{BHZ}
\citation{BB21b}
\newlabel{def:Deltam}{{2.8}{13}{}{theorem.2.8}{}}
\newlabel{eq:BPZg}{{2.22}{13}{Renormalised Model}{equation.2.22}{}}
\citation{MH21}
\citation{MH21}
\citation{BCCH}
\newlabel{eq:Xk}{{2.2}{14}{Renormalised Model}{equation.2.22}{}}
\citation{BCCH}
\citation{BCCH}
\citation{BB21,BB21b}
\citation{EH17,HM18}
\citation{CH16}
\citation{MH21}
\citation{HQ15}
\citation{HQ15}
\citation{HQ15}
\citation{HQ15}
\newlabel{sec:lblgrph}{{3}{15}{Labelled Graphs}{section.3}{}}
\@writefile{toc}{\contentsline {section}{\numberline {3}Labelled Graphs}{15}{section.3}\protected@file@percent }
\@writefile{toc}{\contentsline {subsection}{\numberline {3.1}Directed MultiGraph and Contracted Graphs}{15}{subsection.3.1}\protected@file@percent }
\newlabel{eq:KerTay}{{3.1}{15}{Directed MultiGraph and Contracted Graphs}{equation.3.1}{}}
\citation{MH21}
\citation{MH21}
\citation{HQ15}
\citation{MH21}
\citation{HQ15}
\newlabel{ass:grph}{{2}{16}{}{assumption.2}{}}
\newlabel{eq:ass2e1}{{3.3}{16}{}{equation.3.3}{}}
\newlabel{eq:ass2e2}{{3.4}{16}{}{equation.3.4}{}}
\newlabel{ass:Kernel}{{3}{16}{}{assumption.3}{}}
\newlabel{e:boundKn}{{3.5}{16}{}{equation.3.5}{}}
\newlabel{eq:genconv}{{3.6}{17}{Directed MultiGraph and Contracted Graphs}{equation.3.6}{}}
\newlabel{th:HQbnd}{{3.1}{17}{}{theorem.3.1}{}}
\newlabel{eq:genconvBound}{{3.7}{17}{}{equation.3.7}{}}
\newlabel{def:Kn}{{3.2}{17}{}{theorem.3.2}{}}
\newlabel{def:kayhat}{{3.9}{17}{Directed MultiGraph and Contracted Graphs}{equation.3.9}{}}
\citation{HQ15}
\citation{HQ15}
\citation{MH21}
\newlabel{eq:bigsum}{{3.11}{18}{Directed MultiGraph and Contracted Graphs}{equation.3.11}{}}
\newlabel{lem:wantedBound2}{{3.3}{18}{}{theorem.3.3}{}}
\newlabel{e:wantedBound2}{{3.12}{18}{}{equation.3.12}{}}
\newlabel{e:wantedBound21}{{3.13}{18}{}{equation.3.13}{}}
\@writefile{toc}{\contentsline {subsection}{\numberline {3.2}Partition of Integral Domain}{18}{subsection.3.2}\protected@file@percent }
\citation{HQ15}
\citation{MH21}
\newlabel{eq:labelbnd}{{3.14}{19}{Partition of Integral Domain}{equation.3.14}{}}
\newlabel{lem:kfcn}{{3.6}{19}{}{theorem.3.6}{}}
\newlabel{lem:intbnd}{{3.8}{19}{}{theorem.3.8}{}}
\newlabel{lem:tildeK}{{3.9}{19}{}{theorem.3.9}{}}
\citation{MH21}
\newlabel{lem:HQ}{{3.11}{20}{}{theorem.3.11}{}}
\newlabel{eq:secondmainstep}{{3.16}{20}{Partition of Integral Domain}{equation.3.16}{}}
\newlabel{eq:indbnd}{{3.17}{20}{Partition of Integral Domain}{equation.3.17}{}}
\citation{reg}
\newlabel{eq:config}{{3.18}{21}{Partition of Integral Domain}{equation.3.18}{}}
\newlabel{eq:etaa}{{3.19}{21}{Partition of Integral Domain}{equation.3.19}{}}
\newlabel{eq:etaT}{{3.20}{21}{Partition of Integral Domain}{equation.3.20}{}}
\newlabel{lem:Knebnd}{{3.12}{21}{}{theorem.3.12}{}}
\newlabel{eq:kpmbnd}{{3.21}{21}{Partition of Integral Domain}{equation.3.21}{}}
\newlabel{lem:etasat}{{3.13}{22}{}{theorem.3.13}{}}
\newlabel{eq:sup}{{3.22}{23}{Partition of Integral Domain}{equation.3.22}{}}
\newlabel{sec:elblgraph}{{4}{23}{Elementary Labelled Graphs}{section.4}{}}
\@writefile{toc}{\contentsline {section}{\numberline {4}Elementary Labelled Graphs}{23}{section.4}\protected@file@percent }
\@writefile{toc}{\contentsline {subsection}{\numberline {4.1}Construction of Elementary Labelled Graphs}{24}{subsection.4.1}\protected@file@percent }
\newlabel{def:ELG}{{4.1}{24}{Elementary Labelled Graph}{theorem.4.1}{}}
\newlabel{def:elg1}{{4.4}{24}{}{theorem.4.4}{}}
\newlabel{def:elg2}{{4.5}{24}{}{theorem.4.5}{}}
\newlabel{def:elg3}{{4.7}{25}{}{theorem.4.7}{}}
\newlabel{def:homsub}{{4.2}{25}{Subtree}{equation.4.2}{}}
\@writefile{toc}{\contentsline {subsection}{\numberline {4.2}Bounds on Elementary Labelled Graphs}{26}{subsection.4.2}\protected@file@percent }
\newlabel{ass3}{{4}{26}{}{assumption.4}{}}
\newlabel{elgass1}{{4.3}{26}{}{equation.4.3}{}}
\newlabel{elgass2}{{4.4}{26}{}{equation.4.4}{}}
\newlabel{elgass3}{{4.5}{26}{}{equation.4.5}{}}
\newlabel{eq:T_rho}{{4.6}{26}{Bounds on Elementary Labelled Graphs}{equation.4.6}{}}
\newlabel{eq:proof1}{{4.7}{27}{Bounds on Elementary Labelled Graphs}{equation.4.7}{}}
\citation{MH21}
\citation{Wick50}
\citation{HI67}
\citation{MY89}
\newlabel{prop12}{{4.14}{29}{}{theorem.4.14}{}}
\newlabel{sec:gKPZ}{{5}{29}{Solving the Generalised KPZ Equation}{section.5}{}}
\@writefile{toc}{\contentsline {section}{\numberline {5}Solving the Generalised KPZ Equation}{29}{section.5}\protected@file@percent }
\@writefile{toc}{\contentsline {subsection}{\numberline {5.1}Bounds on the Discrete Model}{29}{subsection.5.1}\protected@file@percent }
\newlabel{eq:KerType}{{5.1}{29}{Bounds on the Discrete Model}{equation.5.1}{}}
\newlabel{ex:cum}{{5.1}{29}{}{theorem.5.1}{}}
\citation{HP15}
\newlabel{eq:examplesplit}{{5.3}{30}{Bounds on the Discrete Model}{equation.5.3}{}}
\newlabel{eq:genKer}{{5.5}{30}{Bounds on the Discrete Model}{equation.5.5}{}}
\newlabel{eq:cumgraph}{{5.6}{30}{Bounds on the Discrete Model}{equation.5.6}{}}
\newlabel{eq:xiixibasic}{{5.7}{31}{}{equation.5.7}{}}
\newlabel{eq:intker1}{{5.8}{31}{Bounds on the Discrete Model}{equation.5.8}{}}
\newlabel{eq:intker2}{{5.9}{31}{Bounds on the Discrete Model}{equation.5.9}{}}
\newlabel{eq:moment}{{5.10}{31}{Bounds on the Discrete Model}{equation.5.10}{}}
\newlabel{eq:cumulant}{{5.11}{31}{Bounds on the Discrete Model}{equation.5.11}{}}
\citation{MH21}
\citation{MH21}
\newlabel{eq:xiixibasic2}{{5.12}{32}{Bounds on the Discrete Model}{equation.5.12}{}}
\@writefile{toc}{\contentsline {subsection}{\numberline {5.2}General Criterion}{32}{subsection.5.2}\protected@file@percent }
\newlabel{prop:pcondition}{{5.3}{32}{}{theorem.5.3}{}}
\newlabel{eq:cond1a}{{5.13}{32}{}{equation.5.13}{}}
\newlabel{eq:cond1b}{{5.14}{32}{}{equation.5.14}{}}
\newlabel{eq:cond2a}{{5.15}{32}{}{equation.5.15}{}}
\newlabel{eq:cond2b}{{5.16}{32}{}{equation.5.16}{}}
\newlabel{eq:cond3}{{5.17}{32}{}{equation.5.17}{}}
\citation{MH21}
\newlabel{sec:RenormProc}{{5.3}{34}{Renormalisation Procedure}{subsection.5.3}{}}
\@writefile{toc}{\contentsline {subsection}{\numberline {5.3}Renormalisation Procedure}{34}{subsection.5.3}\protected@file@percent }
\newlabel{eqdecomp}{{5.18}{35}{Renormalisation Procedure}{equation.5.18}{}}
\newlabel{prop:invcond3}{{5.4}{35}{}{theorem.5.4}{}}
\newlabel{prop:1}{{5.5}{36}{}{theorem.5.5}{}}
\newlabel{eqneg}{{5.19}{37}{Renormalisation Procedure}{equation.5.19}{}}
\newlabel{eq:decomp3}{{5.20}{38}{Renormalisation Procedure}{equation.5.20}{}}
\citation{CH16}
\newlabel{sec:exmclc}{{5.4}{39}{Example Computations}{subsection.5.4}{}}
\@writefile{toc}{\contentsline {subsection}{\numberline {5.4}Example Computations}{39}{subsection.5.4}\protected@file@percent }
\newlabel{eq94}{{5.21}{41}{Example Computations}{equation.5.21}{}}
\citation{MH21}
\citation{MH21}
\citation{EH17}
\citation{BCCH}
\@writefile{toc}{\contentsline {subsection}{\numberline {5.5}Convergence of the model}{47}{subsection.5.5}\protected@file@percent }
\citation{CH16}
\citation{BHZ}
\bibcite{BB21}{{1}{}{{}}{{}}}
\bibcite{BB21b}{{2}{}{{}}{{}}}
\bibcite{BCCH}{{3}{}{{}}{{}}}
\bibcite{BG97}{{4}{}{{}}{{}}}
\bibcite{BGHZ22}{{5}{}{{}}{{}}}
\bibcite{BHZ}{{6}{}{{}}{{}}}
\bibcite{EMS}{{7}{}{{}}{{}}}
\bibcite{BP57}{{8}{}{{}}{{}}}
\bibcite{BR18}{{9}{}{{}}{{}}}
\bibcite{CCHS20}{{10}{}{{}}{{}}}
\bibcite{CCHS22}{{11}{}{{}}{{}}}
\@writefile{toc}{\contentsline {section}{Acknowledgments}{48}{section*.4}\protected@file@percent }
\@writefile{toc}{\contentsline {section}{References}{48}{section*.6}\protected@file@percent }
\bibcite{CGP16}{{12}{}{{}}{{}}}
\bibcite{CH16}{{13}{}{{}}{{}}}
\bibcite{C22}{{14}{}{{}}{{}}}
\bibcite{CM18}{{15}{}{{}}{{}}}
\bibcite{DGP17}{{16}{}{{}}{{}}}
\bibcite{EH17}{{17}{}{{}}{{}}}
\bibcite{MH21}{{18}{}{{}}{{}}}
\bibcite{GIP13}{{19}{}{{}}{{}}}
\bibcite{GJ10}{{20}{}{{}}{{}}}
\bibcite{GJ14}{{21}{}{{}}{{}}}
\bibcite{GP16}{{22}{}{{}}{{}}}
\bibcite{GP17}{{23}{}{{}}{{}}}
\bibcite{GP18}{{24}{}{{}}{{}}}
\bibcite{reg}{{25}{}{{}}{{}}}
\bibcite{KH69}{{26}{}{{}}{{}}}
\bibcite{HI67}{{27}{}{{}}{{}}}
\bibcite{HM18}{{28}{}{{}}{{}}}
\bibcite{HP15}{{29}{}{{}}{{}}}
\bibcite{HQ15}{{30}{}{{}}{{}}}
\bibcite{K16}{{31}{}{{}}{{}}}
\bibcite{LOT}{{32}{}{{}}{{}}}
\bibcite{LOTT}{{33}{}{{}}{{}}}
\bibcite{Mat18}{{34}{}{{}}{{}}}
\bibcite{MP19}{{35}{}{{}}{{}}}
\bibcite{MW17}{{36}{}{{}}{{}}}
\bibcite{MY89}{{37}{}{{}}{{}}}
\bibcite{OSSW}{{38}{}{{}}{{}}}
\bibcite{Wick50}{{39}{}{{}}{{}}}
\bibcite{WZ69}{{40}{}{{}}{{}}}
\bibcite{ZZ14}{{41}{}{{}}{{}}}
\bibcite{ZZ15}{{42}{}{{}}{{}}}
\providecommand\NAT@force@numbers{}\NAT@force@numbers
\gdef \@abspage@last{50}
